# Alias OBJ Model File
# Exported from SketchUp, (c) 2000-2012 Trimble Navigation Limited
# File units = millimeters

mtllib foot.mtl

g Mesh1 Group1 Model

usemtl Color_K08
v 24.1212 2.78024 -12.5536
vt 0.0780665 0
vn 0.683013 0.683013 0.258819
v 24.1694 2.82843 -13.0712
vt 0.0986218 0
vn 0.707107 0.707107 -0
v 22.7552 4.24264 -13.0712
vt 0.0986218 0.0787402
v 22.707 4.19445 -12.5536
vt 0.0780665 0.0787402
f 1/1/1 2/2/2 3/3/2 4/4/1 

vt -0.154797 0.0583607
vn 0.707107 -0.707107 -0
v 24.1212 2.78024 -13.5889
vt -0.154797 0.0991196
vt -0.15748 0.0787402
f 1/5/3 5/6/3 2/7/3

v 23.9799 2.63896 -12.0712
vt -0.146931 0.0393701
f 6/8/3 5/6/3 1/5/3

v 23.9799 2.63896 -14.0712
vt -0.146931 0.11811
f 6/8/3 7/9/3 5/6/3

v 23.7552 2.41421 -11.657
vt -0.134418 0.0230625
f 8/10/3 7/9/3 6/8/3

v 23.7552 2.41421 -14.4855
vt -0.134418 0.134418
f 8/10/3 9/11/3 7/9/3

v 23.4623 2.12132 -11.3392
vt -0.11811 0.0105492
f 10/12/3 9/11/3 8/10/3

v 23.4623 2.12132 -13.0712
vt -0.11811 0.0787402
f 11/13/3 9/11/3 10/12/3

v 23.4623 2.12132 -14.8033
vt -0.11811 0.146931
f 11/13/3 12/14/3 9/11/3

v 23.4382 2.09723 -13.3301
vt -0.116769 0.0889299
f 13/15/3 12/14/3 11/13/3

v 23.3676 2.02659 -13.5712
vt -0.112836 0.0984252
f 14/16/3 12/14/3 13/15/3

v 23.2552 1.91421 -13.7784
vt -0.106579 0.106579
f 15/17/3 12/14/3 14/16/3

v 23.1212 1.78024 -15.0031
vt -0.0991196 0.154797
f 15/17/3 16/18/3 12/14/3

v 23.1087 1.76777 -13.9373
vt -0.0984252 0.112836
f 17/19/3 16/18/3 15/17/3

v 22.9382 1.59723 -14.0372
vt -0.0889299 0.116769
f 18/20/3 16/18/3 17/19/3

v 22.7552 1.41421 -14.0712
vt -0.0787402 0.11811
f 19/21/3 16/18/3 18/20/3

v 22.7552 1.41421 -15.0712
vt -0.0787402 0.15748
f 19/21/3 20/22/3 16/18/3

v 22.5722 1.2312 -14.0372
vt -0.0685504 0.116769
f 21/23/3 20/22/3 19/21/3

v 22.4016 1.06066 -13.9373
vt -0.0590551 0.112836
f 22/24/3 20/22/3 21/23/3

v 22.3892 1.04819 -15.0031
vt -0.0583607 0.154797
f 22/24/3 23/25/3 20/22/3

v 22.2552 0.914214 -13.7784
vt -0.0509013 0.106579
f 24/26/3 23/25/3 22/24/3

v 22.1428 0.801841 -13.5712
vt -0.0446447 0.0984252
f 25/27/3 23/25/3 24/26/3

v 22.0722 0.731201 -13.3301
vt -0.0407116 0.0889299
f 26/28/3 23/25/3 25/27/3

v 22.0481 0.707107 -14.8033
vt -0.0393701 0.146931
f 26/28/3 27/29/3 23/25/3

v 22.0481 0.707107 -13.0712
vt -0.0393701 0.0787402
f 27/29/3 26/28/3 28/30/3

vt 0.0832054 0
vn 0.707107 0.707107 2.14162e-014
vt 0.093483 0
v 20.658 2.14541 -13.3301
vt 0.093483 0.0787402
v 20.6339 2.12132 -13.0712
vt 0.0832054 0.0787402
f 28/31/4 26/32/1 29/33/1 30/34/4 

vt 0.0977401 0
vt 0.108018 0
vn 0.612372 0.612372 0.5
v 20.7286 2.21605 -13.5712
vt 0.108018 0.0787402
vt 0.0977401 0.0787402
f 26/35/1 25/36/5 31/37/5 29/38/1 

vt 0.105264 0
vt 0.115542 0
vn 0.5 0.5 0.707107
v 20.841 2.32843 -13.7784
vt 0.115542 0.0787402
vt 0.105264 0.0787402
f 25/39/5 24/40/6 32/41/6 31/42/5 

vn 0.353553 0.353553 0.866025
v 20.9874 2.47487 -13.9373
f 24/39/6 22/40/7 33/41/7 32/42/6 

vn 0.183013 0.183013 0.965926
v 21.158 2.64541 -14.0372
f 22/35/7 21/36/8 34/37/8 33/38/7 

vn 0 0 1
v 21.341 2.82843 -14.0712
f 21/31/8 19/32/9 35/33/9 34/34/8 

vt 0.06265 0
vt 0.0729277 0
vn -0.183013 -0.183013 0.965926
v 21.524 3.01144 -14.0372
vt 0.0729277 0.0787402
vt 0.06265 0.0787402
f 19/43/9 18/44/10 36/45/10 35/46/9 

vt 0.037475 0
vt 0.0477527 0
vn -0.353553 -0.353553 0.866025
v 21.6945 3.18198 -13.9373
vt 0.0477527 0.0787402
vt 0.037475 0.0787402
f 18/47/10 17/48/11 37/49/11 36/50/10 

vt 0.00939597 0
vt 0.0196736 0
vn -0.5 -0.5 0.707107
v 21.841 3.32843 -13.7784
vt 0.0196736 0.0787402
vt 0.00939597 0.0787402
f 17/51/11 15/52/12 38/53/12 37/54/11 

vt -0.0196736 0
vt -0.00939597 0
vn -0.612372 -0.612372 0.5
v 21.9533 3.4408 -13.5712
vt -0.00939597 0.0787402
vt -0.0196736 0.0787402
f 15/55/12 14/56/13 39/57/13 38/58/12 

vt -0.0477527 0
vt -0.037475 0
vn -0.683013 -0.683013 0.258819
v 22.024 3.51144 -13.3301
vt -0.037475 0.0787402
vt -0.0477527 0.0787402
f 14/59/13 13/60/14 40/61/14 39/62/13 

vt -0.0729277 0
vt -0.06265 0
vn -0.707107 -0.707107 -2.14162e-014
v 22.0481 3.53553 -13.0712
vt -0.06265 0.0787402
vt -0.0729277 0.0787402
f 13/63/14 11/64/15 41/65/15 40/66/14 

vt -0.093483 0
v 23.4382 2.09723 -12.8124
vt -0.0832054 0
vn -0.683013 -0.683013 -0.258819
v 22.024 3.51144 -12.8124
vt -0.0832054 0.0787402
vt -0.093483 0.0787402
f 11/67/15 42/68/16 43/69/16 41/70/15 

vt -0.116769 0.0685504
f 10/12/3 42/71/3 11/13/3

v 23.3676 2.02659 -12.5712
vt -0.112836 0.0590551
f 10/12/3 44/72/3 42/71/3

v 23.2552 1.91421 -12.3641
vt -0.106579 0.0509013
f 10/12/3 45/73/3 44/72/3

v 23.1212 1.78024 -11.1394
vt -0.0991196 0.00268301
f 46/74/3 45/73/3 10/12/3

v 23.1087 1.76777 -12.2052
vt -0.0984252 0.0446447
f 46/74/3 47/75/3 45/73/3

v 22.9382 1.59723 -12.1053
vt -0.0889299 0.0407116
f 46/74/3 48/76/3 47/75/3

v 22.7552 1.41421 -11.0712
vt -0.0787402 0
f 49/77/3 48/76/3 46/74/3

v 22.7552 1.41421 -12.0712
vt -0.0787402 0.0393701
f 49/77/3 50/78/3 48/76/3

v 22.5722 1.2312 -12.1053
vt -0.0685504 0.0407116
f 49/77/3 51/79/3 50/78/3

v 22.4016 1.06066 -12.2052
vt -0.0590551 0.0446447
f 49/77/3 52/80/3 51/79/3

v 22.3892 1.04819 -11.1394
vt -0.0583607 0.00268301
f 53/81/3 52/80/3 49/77/3

v 22.2552 0.914214 -12.3641
vt -0.0509013 0.0509013
f 53/81/3 54/82/3 52/80/3

v 22.1428 0.801841 -12.5712
vt -0.0446447 0.0590551
f 53/81/3 55/83/3 54/82/3

v 22.0722 0.731201 -12.8124
vt -0.0407116 0.0685504
f 53/81/3 56/84/3 55/83/3

v 22.0481 0.707107 -11.3392
vt -0.0393701 0.0105492
f 57/85/3 56/84/3 53/81/3

f 57/85/3 28/30/3 56/84/3

f 57/85/3 27/29/3 28/30/3

v 21.7552 0.414214 -11.657
vt -0.0230625 0.0230625
f 58/86/3 27/29/3 57/85/3

v 21.7552 0.414214 -14.4855
vt -0.0230625 0.134418
f 58/86/3 59/87/3 27/29/3

v 21.5304 0.189469 -12.0712
vt -0.0105492 0.0393701
f 60/88/3 59/87/3 58/86/3

v 21.5304 0.189469 -14.0712
vt -0.0105492 0.11811
f 60/88/3 61/89/3 59/87/3

v 21.3892 0.0481882 -12.5536
vt -0.00268301 0.0583607
f 62/90/3 61/89/3 60/88/3

v 21.3892 0.0481882 -13.5889
vt -0.00268301 0.0991196
f 62/90/3 63/91/3 61/89/3

v 21.341 0 -13.0712
vt 0 0.0787402
f 63/91/3 62/90/3 64/92/3

vt -0.0780665 0
vn -0.707107 -0.707107 -0
vt -0.0575112 0
v 19.9749 1.4624 -12.5536
vt -0.0575112 0.0787402
v 19.9268 1.41421 -13.0712
vt -0.0780665 0.0787402
f 64/93/17 62/94/14 65/95/14 66/96/17 

vt -0.0528915 0
vt -0.0323362 0
v 20.1162 1.60368 -12.0712
vt -0.0323362 0.0787402
vt -0.0528915 0.0787402
f 62/97/14 60/98/13 67/99/13 65/100/14 

vt -0.0248124 0
vt -0.00425714 0
v 20.341 1.82843 -11.657
vt -0.00425714 0.0787402
vt -0.0248124 0.0787402
f 60/101/13 58/102/12 68/103/12 67/104/13 

vt 0.00425714 0
vt 0.0248124 0
v 20.6339 2.12132 -11.3392
vt 0.0248124 0.0787402
vt 0.00425714 0.0787402
f 58/105/12 57/106/11 69/107/11 68/108/12 

vt 0.0323362 0
vt 0.0528915 0
v 20.9749 2.4624 -11.1394
vt 0.0528915 0.0787402
vt 0.0323362 0.0787402
f 57/109/11 53/110/10 70/111/10 69/112/11 

vt 0.0575112 0
vn -1.51337e-014 -1.51337e-014 1
v 21.341 2.82843 -11.0712
vt 0.0575112 0.0787402
f 53/113/10 49/1/18 71/4/18 70/114/10 

v 21.707 3.19445 -11.1394
f 49/1/18 46/2/8 72/3/8 71/4/18 

vt 0.0926013 0
vt 0.113157 0
v 22.0481 3.53553 -11.3392
vt 0.113157 0.0787402
vt 0.0926013 0.0787402
f 46/115/8 10/116/7 73/117/7 72/118/8 

vt 0.100125 0
vt 0.12068 0
v 22.341 3.82843 -11.657
vt 0.12068 0.0787402
vt 0.100125 0.0787402
f 10/119/7 8/120/6 74/121/6 73/122/7 

v 22.5657 4.05317 -12.0712
f 8/119/6 6/120/5 75/121/5 74/122/6 

f 6/115/5 1/116/1 4/117/1 75/118/5 

v 22.5657 4.05317 -14.0712
vt 0.146931 0.11811
vn -0.707107 0.707107 -0
vt 0.146931 0.0393701
vt 0.154797 0.0583607
f 76/123/19 75/124/19 4/125/19

v 22.341 3.82843 -14.4855
vt 0.134418 0.134418
f 77/126/19 75/124/19 76/123/19

vt 0.134418 0.0230625
f 77/126/19 74/127/19 75/124/19

v 22.0481 3.53553 -14.8033
vt 0.11811 0.146931
f 78/128/19 74/127/19 77/126/19

vt 0.11811 0.0787402
f 41/129/19 74/127/19 78/128/19

vt 0.11811 0.0105492
f 41/129/19 73/130/19 74/127/19

vt 0.116769 0.0685504
f 43/131/19 73/130/19 41/129/19

v 21.9533 3.4408 -12.5712
vt 0.112836 0.0590551
f 79/132/19 73/130/19 43/131/19

v 21.841 3.32843 -12.3641
vt 0.106579 0.0509013
f 80/133/19 73/130/19 79/132/19

vt 0.0991196 0.00268301
f 80/133/19 72/134/19 73/130/19

v 21.6945 3.18198 -12.2052
vt 0.0984252 0.0446447
f 81/135/19 72/134/19 80/133/19

v 21.524 3.01144 -12.1053
vt 0.0889299 0.0407116
f 82/136/19 72/134/19 81/135/19

v 21.341 2.82843 -12.0712
vt 0.0787402 0.0393701
f 83/137/19 72/134/19 82/136/19

vt 0.0787402 0
f 83/137/19 71/138/19 72/134/19

v 21.158 2.64541 -12.1053
vt 0.0685504 0.0407116
f 84/139/19 71/138/19 83/137/19

v 20.9874 2.47487 -12.2052
vt 0.0590551 0.0446447
f 85/140/19 71/138/19 84/139/19

vt 0.0583607 0.00268301
f 85/140/19 70/141/19 71/138/19

v 20.841 2.32843 -12.3641
vt 0.0509013 0.0509013
f 86/142/19 70/141/19 85/140/19

v 20.7286 2.21605 -12.5712
vt 0.0446447 0.0590551
f 87/143/19 70/141/19 86/142/19

v 20.658 2.14541 -12.8124
vt 0.0407116 0.0685504
f 88/144/19 70/141/19 87/143/19

vt 0.0393701 0.0105492
f 88/144/19 69/145/19 70/141/19

vt 0.0393701 0.0787402
f 69/145/19 88/144/19 30/146/19

vn 0.683013 0.683013 -0.258819
f 56/43/20 28/44/4 30/45/4 88/46/20 

vn 0.612372 0.612372 -0.5
f 55/47/21 56/48/20 88/49/20 87/50/21 

vn 0.5 0.5 -0.707107
f 54/51/22 55/52/21 87/53/21 86/54/22 

vn 0.353553 0.353553 -0.866025
f 52/55/23 54/56/22 86/57/22 85/58/23 

vn 0.183013 0.183013 -0.965926
f 51/59/24 52/60/23 85/61/23 84/62/24 

vn 0 0 -1
f 50/63/25 51/64/24 84/65/24 83/66/25 

vn -0.183013 -0.183013 -0.965926
f 48/67/26 50/68/25 83/69/25 82/70/26 

vt -0.108018 0
vn -0.353553 -0.353553 -0.866025
vt -0.0977401 0
vt -0.0977401 0.0787402
vt -0.108018 0.0787402
f 47/147/27 48/148/26 82/149/26 81/150/27 

vt -0.115542 0
vn -0.5 -0.5 -0.707107
vt -0.105264 0
vt -0.105264 0.0787402
vt -0.115542 0.0787402
f 45/151/28 47/152/27 81/153/27 80/154/28 

vn -0.612372 -0.612372 -0.5
f 44/151/29 45/152/28 80/153/28 79/154/29 

f 42/147/16 44/148/29 79/149/29 43/150/16 

v 20.6339 2.12132 -14.8033
vt 0.0393701 0.146931
f 89/155/19 69/145/19 30/146/19

v 20.341 1.82843 -14.4855
vt 0.0230625 0.134418
f 90/156/19 69/145/19 89/155/19

vt 0.0230625 0.0230625
f 90/156/19 68/157/19 69/145/19

v 20.1162 1.60368 -14.0712
vt 0.0105492 0.11811
f 91/158/19 68/157/19 90/156/19

vt 0.0105492 0.0393701
f 91/158/19 67/159/19 68/157/19

v 19.9749 1.4624 -13.5889
vt 0.00268301 0.0991196
f 92/160/19 67/159/19 91/158/19

vt 0.00268301 0.0583607
f 92/160/19 65/161/19 67/159/19

f 65/161/19 92/160/19 66/92/19

vt -0.0986218 0
vt -0.0986218 0.0787402
f 63/162/16 64/93/17 66/96/17 92/163/16 

vt -0.113157 0
vt -0.0926013 0
vt -0.0926013 0.0787402
vt -0.113157 0.0787402
f 61/164/29 63/165/16 92/166/16 91/167/29 

vt -0.12068 0
vt -0.100125 0
vt -0.100125 0.0787402
vt -0.12068 0.0787402
f 59/168/28 61/169/29 91/170/29 90/171/28 

f 27/168/27 59/169/28 90/170/28 89/171/27 

v 20.9749 2.4624 -15.0031
f 23/164/26 27/165/27 89/166/27 93/167/26 

vt 0.0407116 0.0889299
vt 0.0583607 0.154797
f 89/155/19 29/172/19 93/173/19

f 89/155/19 30/146/19 29/172/19

vt 0.0446447 0.0984252
f 93/173/19 29/172/19 31/174/19

vt 0.0509013 0.106579
f 93/173/19 31/174/19 32/175/19

vt 0.0590551 0.112836
f 93/173/19 32/175/19 33/176/19

v 21.341 2.82843 -15.0712
vt 0.0787402 0.15748
f 93/173/19 33/176/19 94/177/19

vt 0.0685504 0.116769
f 94/177/19 33/176/19 34/178/19

vt 0.0787402 0.11811
f 94/177/19 34/178/19 35/179/19

vt 0.0889299 0.116769
f 94/177/19 35/179/19 36/180/19

v 21.707 3.19445 -15.0031
vt 0.0991196 0.154797
f 94/177/19 36/180/19 95/181/19

vt 0.0984252 0.112836
f 95/181/19 36/180/19 37/182/19

vt 0.106579 0.106579
f 95/181/19 37/182/19 38/183/19

f 95/181/19 38/183/19 78/128/19

vt 0.112836 0.0984252
f 78/128/19 38/183/19 39/184/19

vt 0.116769 0.0889299
f 78/128/19 39/184/19 40/185/19

f 78/128/19 40/185/19 41/129/19

f 12/97/23 16/98/24 95/99/24 78/100/23 

vn 1.4134e-014 1.4134e-014 -1
f 16/93/24 20/94/30 94/95/30 95/96/24 

f 20/162/30 23/93/26 93/96/26 94/163/30 

f 9/101/22 12/102/23 78/103/23 77/104/22 

f 7/105/21 9/106/22 77/107/22 76/108/21 

v 22.707 4.19445 -13.5889
f 5/109/20 7/110/21 76/111/21 96/112/20 

vt 0.154797 0.0991196
f 76/123/19 4/125/19 96/186/19

vt 0.15748 0.0787402
f 96/186/19 4/125/19 3/187/19

f 2/113/2 5/1/20 96/4/20 3/114/2 

